dplyr
…
---

## Summarise and Group_by
 - Finding summary statistics of a metric after accounting first for other variables

```r
pitch %>%
    group_by(playerid) %>%
    summarise(mean_spinrate = mean(spin_rate, na.rm=TRUE), 
              sd_spinrate = sd(spin_rate, na.rm = TRUE))
```

```
## # A tibble: 383 × 3
##    playerid mean_spinrate sd_spinrate
##       <dbl>         <dbl>       <dbl>
##  1      476         2726.       161. 
##  2      485         2434.       155. 
##  3      517         2543.        92.3
##  4      607         1986.       283. 
##  5      645         2473.        77.9
##  6      646         2132.       145. 
##  7      657         2817.       103. 
##  8      702         1782.       426. 
##  9      721         2352.        70.3
## 10      843         2222.       151. 
## # … with 373 more rows
```
…
```r
pitch %>%
    select(playerid, spin_rate, action_result) %>%
    group_by(playerid, action_result) %>%
    summarise(mean_spin = mean(spin_rate), sd_spin = sd(spin_rate)) %>%
    mutate(mean = sum(mean_spin) / n()) %>%
    mutate(difference = mean - mean_spin)
```

```
## `summarise()` has grouped output by 'playerid'. You can override using the `.groups` argument.
```

```
## # A tibble: 1,662 × 6
## # Groups:   playerid [383]
##    playerid action_result mean_spin sd_spin  mean difference
##       <dbl> <chr>             <dbl>   <dbl> <dbl>      <dbl>
##  1      476 B                 2739.    161. 2728.     -10.8 
##  2      476 C                 2699.    147. 2728.      29.4 
##  3      476 F                 2733.    174. 2728.      -4.35
##  4      476 S                 2754.    199. 2728.     -25.5 
##  5      476 X                 2717.    140. 2728.      11.3 
##  6      485 B                 2415.    188. 2438.      23.6 
##  7      485 C                 2460.    111. 2438.     -22.2 
##  8      485 F                 2462.    125. 2438.     -23.5 
##  9      485 S                 2434.    145. 2438.       4.25
## 10      485 X                 2421.    155. 2438.      17.8 
## # … with 1,652 more rows
```
…
```r
SScurve <- pitch %>%
  select("playerid", "action_result", "ab_result", "adj_h") %>%  
  arrange(desc(playerid)) %>% mutate(successfulCU = ifelse(
    (adj_h < .3 & ab_result != "\\N" ) | 
      (action_result %in% c("C","S","F")), 1, 0)) %>%
#Consider a success any strike and any batted ball resulting in a 
#adj_h less than the league average of .300 BABIP (according to MLB.com).
  group_by(playerid) %>% mutate(totalSSCU=sum(successfulCU)) %>% 
  mutate(percentSSCU=totalSSCU / n())
SScurve
```

```
## # A tibble: 42,158 × 7
## # Groups:   playerid [383]
##    playerid action_result ab_result adj_h successfulCU totalSSCU percentSSCU
##       <dbl> <chr>         <chr>     <dbl>        <dbl>     <dbl>       <dbl>
##  1    24121 B             "\\N"         0            0       159       0.528
##  2    24121 C             "\\N"         0            1       159       0.528
##  3    24121 C             "\\N"         0            1       159       0.528
##  4    24121 B             "\\N"         0            0       159       0.528
##  5    24121 C             "\\N"         0            1       159       0.528
##  6    24121 C             "\\N"         0            1       159       0.528
##  7    24121 B             "\\N"         0            0       159       0.528
##  8    24121 B             "\\N"         0            0       159       0.528
##  9    24121 B             "\\N"         0            0       159       0.528
## 10    24121 C             "\\N"         0            1       159       0.528
## # … with 42,148 more rows
```
…
