Data Wrangling
…
 - How would I create a calculation for how far above or below each players pitches are from their own average spin rates?

```r
pitch %>%
    select(playerid, spin_rate, action_result) %>%
    group_by(playerid, action_result) %>%
    summarise(mean_spin = mean(spin_rate), 
              sd_spin = sd(spin_rate)) %>%
    mutate(mean = sum(mean_spin) / n()) %>%
    mutate(difference = mean - mean_spin)
```

```
## # A tibble: 218 × 6
## # Groups:   playerid [65]
##    playerid action_result mean_spin sd_spin  mean difference
##       <dbl> <chr>             <dbl>   <dbl> <dbl>      <dbl>
##  1      476 B                 3077.   52.1  3058.     -19.1 
##  2      476 F                 3101.    1.69 3058.     -43.4 
##  3      476 S                 3041.   17.0  3058.      17.2 
##  4      476 X                 3013.   NA    3058.      45.3 
##  5      607 B                 3278.   NA    3278.       0   
##  6      657 B                 3047.   46.2  3036.     -11.2 
##  7      657 F                 3025.   34.7  3036.      11.2 
##  8      959 B                 3066.   53.6  3057.      -9.56
##  9      959 C                 3039.   35.6  3057.      18.0 
## 10      959 F                 3054.   38.1  3057.       3.00
## # … with 208 more rows
```

---
## Utilzing `ifelse`
- Sometimes you are tasked to create a new column based on a clause

- `ifelse` function allows you to create an if else statement within the creation 
of the new variable.

- Consider rewriting the handedness of our pitchers.

- If the pitcher_hand is R write "Right" if not, "Left"

```
## # A tibble: 2,239 × 2
##    pitcher_hand Handedness
##    <chr>        <chr>     
##  1 R            Right     
##  2 L            Left      
##  3 R            Right     
##  4 R            Right     
##  5 R            Right     
##  6 L            Left      
##  7 L            Left      
##  8 R            Right     
##  9 R            Right     
## 10 R            Right     
## # … with 2,229 more rows
```
…
