XPATH and Data Extraction
…
```
## {xml_nodeset (2)}
## [1] <table width="100%"><tbody><tr>\n<td valign="top"> <style data-mw-dedupli ...
## [2] <table class="wikitable sortable static-row-numbers plainrowheaders srn-w ...
```

```r
myhtml %>% 
  html_nodes("table") %>% # get the tables 
  magrittr::extract2(2) %>% # pick the second one to parse
  html_table(header = TRUE) # parse table 
```

```
## # A tibble: 229 × 9
##    `Country/Territory` Subregion       Region  `IMF[5]` `IMF[5]` `World Bank[6]`
##    <chr>               <chr>           <chr>   <chr>    <chr>    <chr>          
##  1 Country/Territory   Subregion       Region  Estimate Year     Estimate       
##  2 Liechtenstein *     Western Europe  Europe  N/A      N/A      N/A            
##  3 Luxembourg *        Western Europe  Europe  122,740  2021     118,360        
##  4 Monaco *            Western Europe  Europe  N/A      N/A      N/A            
##  5 Singapore *         South-eastern … Asia    102,742  2021     98,526         
##  6 Ireland *           Northern Europe Europe  99,239   2021     93,612         
##  7 Qatar *             Western Asia    Asia    97,262   2021     89,949         
##  8 Macau *             Eastern Asia    Asia    90,606   2021     57,807         
##  9 Isle of Man *       Northern Europe Europe  N/A      N/A      N/A            
## 10 Bermuda *           Northern Ameri… Americ… N/A      N/A      85,264         
## # … with 219 more rows, and 3 more variables: World Bank[6] <chr>,
## #   CIA[7] <chr>, CIA[7] <chr>
```
…
